vhdl xil_defaultlib "../../../../vivado/mig/user_design/rtl/phy/mig_7series_v4_0_ddr_phy_top.vhd" 
vhdl xil_defaultlib "../../../../vivado/mig/user_design/rtl/mig_mig_sim.vhd" 
vhdl xil_defaultlib "../../../../vivado/mig/user_design/rtl/mig.vhd" 
nosort
